; ModuleID = 'J:/FPGA/Vivado_hls/Inverter/solution1/.autopilot/db/a.o.3.bc'
target datalayout = "e-p:32:32:32-i1:8:8-i8:8:8-i16:16:16-i32:32:32-i64:64:64-f32:32:32-f64:64:64-f80:128:128-v64:64:64-v128:128:128-a0:0:64-f80:32:32-n8:16:32-S32"
target triple = "i686-pc-mingw32"

@llvm_global_ctors_1 = appending global [1 x void ()*] [void ()* @_GLOBAL__I_a] ; [#uses=0 type=[1 x void ()*]*]
@llvm_global_ctors_0 = appending global [1 x i32] [i32 65535] ; [#uses=0 type=[1 x i32]*]
@Invert_str = internal unnamed_addr constant [7 x i8] c"Invert\00" ; [#uses=1 type=[7 x i8]*]

; [#uses=2]
declare void @llvm.dbg.value(metadata, i64, metadata) nounwind readnone

; [#uses=1]
define weak void @_ssdm_op_Write.ap_auto.i1P(i1*, i1) {
entry:
  store i1 %1, i1* %0
  ret void
}

; [#uses=1]
define weak void @_ssdm_op_SpecTopModule(...) {
entry:
  ret void
}

; [#uses=1]
define weak void @_ssdm_op_SpecBitsMap(...) {
entry:
  ret void
}

; [#uses=1]
define weak i1 @_ssdm_op_Read.ap_auto.i1P(i1*) {
entry:
  %empty = load i1* %0                            ; [#uses=1 type=i1]
  ret i1 %empty
}

; [#uses=1]
declare void @_GLOBAL__I_a() nounwind

; [#uses=0]
define void @Invert(i1* %value_V) {
  call void (...)* @_ssdm_op_SpecBitsMap(i1* %value_V), !map !26
  call void (...)* @_ssdm_op_SpecTopModule([7 x i8]* @Invert_str) nounwind
  call void @llvm.dbg.value(metadata !{i1* %value_V}, i64 0, metadata !30), !dbg !407 ; [debug line = 4:25] [debug variable = value.V]
  %value_V_read = call i1 @_ssdm_op_Read.ap_auto.i1P(i1* %value_V), !dbg !408 ; [#uses=1 type=i1] [debug line = 1655:70@6:11]
  %p_s = xor i1 %value_V_read, true, !dbg !413    ; [#uses=1 type=i1] [debug line = 252:62@252:77@6:11]
  call void @llvm.dbg.value(metadata !{i1* %value_V}, i64 0, metadata !418), !dbg !423 ; [debug line = 279:53@6:11] [debug variable = ssdm_int<1 + 1024 * 0, false>.V]
  call void @_ssdm_op_Write.ap_auto.i1P(i1* %value_V, i1 %p_s), !dbg !424 ; [debug line = 280:10@6:11]
  ret void, !dbg !426                             ; [debug line = 7:1]
}

!opencl.kernels = !{!0, !7, !7, !10, !10, !16, !10}
!hls.encrypted.func = !{}
!llvm.map.gv = !{!19}

!0 = metadata !{null, metadata !1, metadata !2, metadata !3, metadata !4, metadata !5, metadata !6}
!1 = metadata !{metadata !"kernel_arg_addr_space", i32 0}
!2 = metadata !{metadata !"kernel_arg_access_qual", metadata !"none"}
!3 = metadata !{metadata !"kernel_arg_type", metadata !"ap_uint<1> &"}
!4 = metadata !{metadata !"kernel_arg_type_qual", metadata !""}
!5 = metadata !{metadata !"kernel_arg_name", metadata !"value"}
!6 = metadata !{metadata !"reqd_work_group_size", i32 1, i32 1, i32 1}
!7 = metadata !{null, metadata !1, metadata !2, metadata !8, metadata !4, metadata !9, metadata !6}
!8 = metadata !{metadata !"kernel_arg_type", metadata !"int"}
!9 = metadata !{metadata !"kernel_arg_name", metadata !"val"}
!10 = metadata !{null, metadata !11, metadata !12, metadata !13, metadata !14, metadata !15, metadata !6}
!11 = metadata !{metadata !"kernel_arg_addr_space"}
!12 = metadata !{metadata !"kernel_arg_access_qual"}
!13 = metadata !{metadata !"kernel_arg_type"}
!14 = metadata !{metadata !"kernel_arg_type_qual"}
!15 = metadata !{metadata !"kernel_arg_name"}
!16 = metadata !{null, metadata !1, metadata !2, metadata !17, metadata !4, metadata !18, metadata !6}
!17 = metadata !{metadata !"kernel_arg_type", metadata !"const ap_uint<1> &"}
!18 = metadata !{metadata !"kernel_arg_name", metadata !"op2"}
!19 = metadata !{metadata !20, [1 x i32]* @llvm_global_ctors_0}
!20 = metadata !{metadata !21}
!21 = metadata !{i32 0, i32 31, metadata !22}
!22 = metadata !{metadata !23}
!23 = metadata !{metadata !"llvm.global_ctors.0", metadata !24, metadata !"", i32 0, i32 31}
!24 = metadata !{metadata !25}
!25 = metadata !{i32 0, i32 0, i32 1}
!26 = metadata !{metadata !27}
!27 = metadata !{i32 0, i32 0, metadata !28}
!28 = metadata !{metadata !29}
!29 = metadata !{metadata !"value.V", metadata !24, metadata !"uint1", i32 0, i32 0}
!30 = metadata !{i32 790531, metadata !31, metadata !"value.V", null, i32 4, metadata !400, i32 0, i32 0} ; [ DW_TAG_arg_variable_field ]
!31 = metadata !{i32 786689, metadata !32, metadata !"value", metadata !33, i32 16777220, metadata !36, i32 0, i32 0} ; [ DW_TAG_arg_variable ]
!32 = metadata !{i32 786478, i32 0, metadata !33, metadata !"Invert", metadata !"Invert", metadata !"_Z6InvertR7ap_uintILi1EE", metadata !33, i32 4, metadata !34, i1 false, i1 true, i32 0, i32 0, null, i32 256, i1 false, null, null, null, metadata !54, i32 5} ; [ DW_TAG_subprogram ]
!33 = metadata !{i32 786473, metadata !"Sources/Inverter.cpp", metadata !"J:\5CFPGA\5CVivado_hls", null} ; [ DW_TAG_file_type ]
!34 = metadata !{i32 786453, i32 0, metadata !"", i32 0, i32 0, i64 0, i64 0, i64 0, i32 0, null, metadata !35, i32 0, i32 0} ; [ DW_TAG_subroutine_type ]
!35 = metadata !{null, metadata !36}
!36 = metadata !{i32 786448, null, null, null, i32 0, i64 0, i64 0, i64 0, i32 0, metadata !37} ; [ DW_TAG_reference_type ]
!37 = metadata !{i32 786434, null, metadata !"ap_uint<1>", metadata !38, i32 182, i64 8, i64 8, i32 0, i32 0, null, metadata !39, i32 0, null, metadata !399} ; [ DW_TAG_class_type ]
!38 = metadata !{i32 786473, metadata !"C:/Xilinx/Vivado_HLS/2017.2/common/technology/autopilot\5Cap_int.h", metadata !"J:\5CFPGA\5CVivado_hls", null} ; [ DW_TAG_file_type ]
!39 = metadata !{metadata !40, metadata !328, metadata !332, metadata !335, metadata !338, metadata !341, metadata !344, metadata !347, metadata !350, metadata !353, metadata !356, metadata !359, metadata !362, metadata !365, metadata !368, metadata !371, metadata !374, metadata !377, metadata !380, metadata !387, metadata !392, metadata !395, metadata !398}
!40 = metadata !{i32 786460, metadata !37, null, metadata !38, i32 0, i64 0, i64 0, i64 0, i32 0, metadata !41} ; [ DW_TAG_inheritance ]
!41 = metadata !{i32 786434, null, metadata !"ap_int_base<1, false, true>", metadata !42, i32 1398, i64 8, i64 8, i32 0, i32 0, null, metadata !43, i32 0, null, metadata !325} ; [ DW_TAG_class_type ]
!42 = metadata !{i32 786473, metadata !"C:/Xilinx/Vivado_HLS/2017.2/common/technology/autopilot/ap_int_syn.h", metadata !"J:\5CFPGA\5CVivado_hls", null} ; [ DW_TAG_file_type ]
!43 = metadata !{metadata !44, metadata !61, metadata !65, metadata !73, metadata !79, metadata !82, metadata !86, metadata !90, metadata !94, metadata !98, metadata !101, metadata !105, metadata !109, metadata !113, metadata !118, metadata !123, metadata !128, metadata !132, metadata !136, metadata !142, metadata !145, metadata !149, metadata !152, metadata !155, metadata !156, metadata !160, metadata !163, metadata !166, metadata !169, metadata !172, metadata !175, metadata !178, metadata !181, metadata !184, metadata !187, metadata !190, metadata !193, metadata !201, metadata !204, metadata !207, metadata !210, metadata !213, metadata !216, metadata !219, metadata !222, metadata !225, metadata !228, metadata !231, metadata !234, metadata !237, metadata !238, metadata !242, metadata !245, metadata !246, metadata !247, metadata !248, metadata !249, metadata !250, metadata !253, metadata !254, metadata !257, metadata !258, metadata !259, metadata !260, metadata !261, metadata !262, metadata !265, metadata !266, metadata !267, metadata !270, metadata !271, metadata !274, metadata !275, metadata !279, metadata !283, metadata !284, metadata !287, metadata !288, metadata !292, metadata !293, metadata !294, metadata !295, metadata !298, metadata !299, metadata !300, metadata !301, metadata !302, metadata !303, metadata !304, metadata !305, metadata !306, metadata !307, metadata !308, metadata !309, metadata !319, metadata !322}
!44 = metadata !{i32 786460, metadata !41, null, metadata !42, i32 0, i64 0, i64 0, i64 0, i32 0, metadata !45} ; [ DW_TAG_inheritance ]
!45 = metadata !{i32 786434, null, metadata !"ssdm_int<1 + 1024 * 0, false>", metadata !46, i32 3, i64 8, i64 8, i32 0, i32 0, null, metadata !47, i32 0, null, metadata !56} ; [ DW_TAG_class_type ]
!46 = metadata !{i32 786473, metadata !"C:/Xilinx/Vivado_HLS/2017.2/common/technology/autopilot/etc/autopilot_dt.def", metadata !"J:\5CFPGA\5CVivado_hls", null} ; [ DW_TAG_file_type ]
!47 = metadata !{metadata !48, metadata !50}
!48 = metadata !{i32 786445, metadata !45, metadata !"V", metadata !46, i32 3, i64 1, i64 1, i64 0, i32 0, metadata !49} ; [ DW_TAG_member ]
!49 = metadata !{i32 786468, null, metadata !"uint1", null, i32 0, i64 1, i64 1, i64 0, i32 0, i32 7} ; [ DW_TAG_base_type ]
!50 = metadata !{i32 786478, i32 0, metadata !45, metadata !"ssdm_int", metadata !"ssdm_int", metadata !"", metadata !46, i32 3, metadata !51, i1 false, i1 false, i32 0, i32 0, null, i32 256, i1 false, null, null, i32 0, metadata !54, i32 3} ; [ DW_TAG_subprogram ]
!51 = metadata !{i32 786453, i32 0, metadata !"", i32 0, i32 0, i64 0, i64 0, i64 0, i32 0, null, metadata !52, i32 0, i32 0} ; [ DW_TAG_subroutine_type ]
!52 = metadata !{null, metadata !53}
!53 = metadata !{i32 786447, i32 0, metadata !"", i32 0, i32 0, i64 32, i64 32, i64 0, i32 64, metadata !45} ; [ DW_TAG_pointer_type ]
!54 = metadata !{metadata !55}
!55 = metadata !{i32 786468}                      ; [ DW_TAG_base_type ]
!56 = metadata !{metadata !57, metadata !59}
!57 = metadata !{i32 786480, null, metadata !"_AP_N", metadata !58, i64 1, null, i32 0, i32 0} ; [ DW_TAG_template_value_parameter ]
!58 = metadata !{i32 786468, null, metadata !"int", null, i32 0, i64 32, i64 32, i64 0, i32 0, i32 5} ; [ DW_TAG_base_type ]
!59 = metadata !{i32 786480, null, metadata !"_AP_S", metadata !60, i64 0, null, i32 0, i32 0} ; [ DW_TAG_template_value_parameter ]
!60 = metadata !{i32 786468, null, metadata !"bool", null, i32 0, i64 8, i64 8, i64 0, i32 0, i32 2} ; [ DW_TAG_base_type ]
!61 = metadata !{i32 786478, i32 0, metadata !41, metadata !"ap_int_base", metadata !"ap_int_base", metadata !"", metadata !42, i32 1439, metadata !62, i1 false, i1 false, i32 0, i32 0, null, i32 256, i1 false, null, null, i32 0, metadata !54, i32 1439} ; [ DW_TAG_subprogram ]
!62 = metadata !{i32 786453, i32 0, metadata !"", i32 0, i32 0, i64 0, i64 0, i64 0, i32 0, null, metadata !63, i32 0, i32 0} ; [ DW_TAG_subroutine_type ]
!63 = metadata !{null, metadata !64}
!64 = metadata !{i32 786447, i32 0, metadata !"", i32 0, i32 0, i64 32, i64 32, i64 0, i32 64, metadata !41} ; [ DW_TAG_pointer_type ]
!65 = metadata !{i32 786478, i32 0, metadata !41, metadata !"ap_int_base<1, false>", metadata !"ap_int_base<1, false>", metadata !"", metadata !42, i32 1451, metadata !66, i1 false, i1 false, i32 0, i32 0, null, i32 256, i1 false, null, metadata !70, i32 0, metadata !54, i32 1451} ; [ DW_TAG_subprogram ]
!66 = metadata !{i32 786453, i32 0, metadata !"", i32 0, i32 0, i64 0, i64 0, i64 0, i32 0, null, metadata !67, i32 0, i32 0} ; [ DW_TAG_subroutine_type ]
!67 = metadata !{null, metadata !64, metadata !68}
!68 = metadata !{i32 786448, null, null, null, i32 0, i64 0, i64 0, i64 0, i32 0, metadata !69} ; [ DW_TAG_reference_type ]
!69 = metadata !{i32 786470, null, metadata !"", null, i32 0, i64 0, i64 0, i64 0, i32 0, metadata !41} ; [ DW_TAG_const_type ]
!70 = metadata !{metadata !71, metadata !72}
!71 = metadata !{i32 786480, null, metadata !"_AP_W2", metadata !58, i64 1, null, i32 0, i32 0} ; [ DW_TAG_template_value_parameter ]
!72 = metadata !{i32 786480, null, metadata !"_AP_S2", metadata !60, i64 0, null, i32 0, i32 0} ; [ DW_TAG_template_value_parameter ]
!73 = metadata !{i32 786478, i32 0, metadata !41, metadata !"ap_int_base<1, false>", metadata !"ap_int_base<1, false>", metadata !"", metadata !42, i32 1454, metadata !74, i1 false, i1 false, i32 0, i32 0, null, i32 256, i1 false, null, metadata !70, i32 0, metadata !54, i32 1454} ; [ DW_TAG_subprogram ]
!74 = metadata !{i32 786453, i32 0, metadata !"", i32 0, i32 0, i64 0, i64 0, i64 0, i32 0, null, metadata !75, i32 0, i32 0} ; [ DW_TAG_subroutine_type ]
!75 = metadata !{null, metadata !64, metadata !76}
!76 = metadata !{i32 786448, null, null, null, i32 0, i64 0, i64 0, i64 0, i32 0, metadata !77} ; [ DW_TAG_reference_type ]
!77 = metadata !{i32 786470, null, metadata !"", null, i32 0, i64 0, i64 0, i64 0, i32 0, metadata !78} ; [ DW_TAG_const_type ]
!78 = metadata !{i32 786485, null, metadata !"", null, i32 0, i64 0, i64 0, i64 0, i32 0, metadata !41} ; [ DW_TAG_volatile_type ]
!79 = metadata !{i32 786478, i32 0, metadata !41, metadata !"ap_int_base", metadata !"ap_int_base", metadata !"", metadata !42, i32 1461, metadata !80, i1 false, i1 false, i32 0, i32 0, null, i32 384, i1 false, null, null, i32 0, metadata !54, i32 1461} ; [ DW_TAG_subprogram ]
!80 = metadata !{i32 786453, i32 0, metadata !"", i32 0, i32 0, i64 0, i64 0, i64 0, i32 0, null, metadata !81, i32 0, i32 0} ; [ DW_TAG_subroutine_type ]
!81 = metadata !{null, metadata !64, metadata !60}
!82 = metadata !{i32 786478, i32 0, metadata !41, metadata !"ap_int_base", metadata !"ap_int_base", metadata !"", metadata !42, i32 1462, metadata !83, i1 false, i1 false, i32 0, i32 0, null, i32 384, i1 false, null, null, i32 0, metadata !54, i32 1462} ; [ DW_TAG_subprogram ]
!83 = metadata !{i32 786453, i32 0, metadata !"", i32 0, i32 0, i64 0, i64 0, i64 0, i32 0, null, metadata !84, i32 0, i32 0} ; [ DW_TAG_subroutine_type ]
!84 = metadata !{null, metadata !64, metadata !85}
!85 = metadata !{i32 786468, null, metadata !"signed char", null, i32 0, i64 8, i64 8, i64 0, i32 0, i32 6} ; [ DW_TAG_base_type ]
!86 = metadata !{i32 786478, i32 0, metadata !41, metadata !"ap_int_base", metadata !"ap_int_base", metadata !"", metadata !42, i32 1463, metadata !87, i1 false, i1 false, i32 0, i32 0, null, i32 384, i1 false, null, null, i32 0, metadata !54, i32 1463} ; [ DW_TAG_subprogram ]
!87 = metadata !{i32 786453, i32 0, metadata !"", i32 0, i32 0, i64 0, i64 0, i64 0, i32 0, null, metadata !88, i32 0, i32 0} ; [ DW_TAG_subroutine_type ]
!88 = metadata !{null, metadata !64, metadata !89}
!89 = metadata !{i32 786468, null, metadata !"unsigned char", null, i32 0, i64 8, i64 8, i64 0, i32 0, i32 8} ; [ DW_TAG_base_type ]
!90 = metadata !{i32 786478, i32 0, metadata !41, metadata !"ap_int_base", metadata !"ap_int_base", metadata !"", metadata !42, i32 1464, metadata !91, i1 false, i1 false, i32 0, i32 0, null, i32 384, i1 false, null, null, i32 0, metadata !54, i32 1464} ; [ DW_TAG_subprogram ]
!91 = metadata !{i32 786453, i32 0, metadata !"", i32 0, i32 0, i64 0, i64 0, i64 0, i32 0, null, metadata !92, i32 0, i32 0} ; [ DW_TAG_subroutine_type ]
!92 = metadata !{null, metadata !64, metadata !93}
!93 = metadata !{i32 786468, null, metadata !"short", null, i32 0, i64 16, i64 16, i64 0, i32 0, i32 5} ; [ DW_TAG_base_type ]
!94 = metadata !{i32 786478, i32 0, metadata !41, metadata !"ap_int_base", metadata !"ap_int_base", metadata !"", metadata !42, i32 1465, metadata !95, i1 false, i1 false, i32 0, i32 0, null, i32 384, i1 false, null, null, i32 0, metadata !54, i32 1465} ; [ DW_TAG_subprogram ]
!95 = metadata !{i32 786453, i32 0, metadata !"", i32 0, i32 0, i64 0, i64 0, i64 0, i32 0, null, metadata !96, i32 0, i32 0} ; [ DW_TAG_subroutine_type ]
!96 = metadata !{null, metadata !64, metadata !97}
!97 = metadata !{i32 786468, null, metadata !"unsigned short", null, i32 0, i64 16, i64 16, i64 0, i32 0, i32 7} ; [ DW_TAG_base_type ]
!98 = metadata !{i32 786478, i32 0, metadata !41, metadata !"ap_int_base", metadata !"ap_int_base", metadata !"", metadata !42, i32 1466, metadata !99, i1 false, i1 false, i32 0, i32 0, null, i32 384, i1 false, null, null, i32 0, metadata !54, i32 1466} ; [ DW_TAG_subprogram ]
!99 = metadata !{i32 786453, i32 0, metadata !"", i32 0, i32 0, i64 0, i64 0, i64 0, i32 0, null, metadata !100, i32 0, i32 0} ; [ DW_TAG_subroutine_type ]
!100 = metadata !{null, metadata !64, metadata !58}
!101 = metadata !{i32 786478, i32 0, metadata !41, metadata !"ap_int_base", metadata !"ap_int_base", metadata !"", metadata !42, i32 1467, metadata !102, i1 false, i1 false, i32 0, i32 0, null, i32 384, i1 false, null, null, i32 0, metadata !54, i32 1467} ; [ DW_TAG_subprogram ]
!102 = metadata !{i32 786453, i32 0, metadata !"", i32 0, i32 0, i64 0, i64 0, i64 0, i32 0, null, metadata !103, i32 0, i32 0} ; [ DW_TAG_subroutine_type ]
!103 = metadata !{null, metadata !64, metadata !104}
!104 = metadata !{i32 786468, null, metadata !"unsigned int", null, i32 0, i64 32, i64 32, i64 0, i32 0, i32 7} ; [ DW_TAG_base_type ]
!105 = metadata !{i32 786478, i32 0, metadata !41, metadata !"ap_int_base", metadata !"ap_int_base", metadata !"", metadata !42, i32 1468, metadata !106, i1 false, i1 false, i32 0, i32 0, null, i32 384, i1 false, null, null, i32 0, metadata !54, i32 1468} ; [ DW_TAG_subprogram ]
!106 = metadata !{i32 786453, i32 0, metadata !"", i32 0, i32 0, i64 0, i64 0, i64 0, i32 0, null, metadata !107, i32 0, i32 0} ; [ DW_TAG_subroutine_type ]
!107 = metadata !{null, metadata !64, metadata !108}
!108 = metadata !{i32 786468, null, metadata !"long int", null, i32 0, i64 32, i64 32, i64 0, i32 0, i32 5} ; [ DW_TAG_base_type ]
!109 = metadata !{i32 786478, i32 0, metadata !41, metadata !"ap_int_base", metadata !"ap_int_base", metadata !"", metadata !42, i32 1469, metadata !110, i1 false, i1 false, i32 0, i32 0, null, i32 384, i1 false, null, null, i32 0, metadata !54, i32 1469} ; [ DW_TAG_subprogram ]
!110 = metadata !{i32 786453, i32 0, metadata !"", i32 0, i32 0, i64 0, i64 0, i64 0, i32 0, null, metadata !111, i32 0, i32 0} ; [ DW_TAG_subroutine_type ]
!111 = metadata !{null, metadata !64, metadata !112}
!112 = metadata !{i32 786468, null, metadata !"long unsigned int", null, i32 0, i64 32, i64 32, i64 0, i32 0, i32 7} ; [ DW_TAG_base_type ]
!113 = metadata !{i32 786478, i32 0, metadata !41, metadata !"ap_int_base", metadata !"ap_int_base", metadata !"", metadata !42, i32 1470, metadata !114, i1 false, i1 false, i32 0, i32 0, null, i32 384, i1 false, null, null, i32 0, metadata !54, i32 1470} ; [ DW_TAG_subprogram ]
!114 = metadata !{i32 786453, i32 0, metadata !"", i32 0, i32 0, i64 0, i64 0, i64 0, i32 0, null, metadata !115, i32 0, i32 0} ; [ DW_TAG_subroutine_type ]
!115 = metadata !{null, metadata !64, metadata !116}
!116 = metadata !{i32 786454, null, metadata !"ap_slong", metadata !42, i32 112, i64 0, i64 0, i64 0, i32 0, metadata !117} ; [ DW_TAG_typedef ]
!117 = metadata !{i32 786468, null, metadata !"long long int", null, i32 0, i64 64, i64 64, i64 0, i32 0, i32 5} ; [ DW_TAG_base_type ]
!118 = metadata !{i32 786478, i32 0, metadata !41, metadata !"ap_int_base", metadata !"ap_int_base", metadata !"", metadata !42, i32 1471, metadata !119, i1 false, i1 false, i32 0, i32 0, null, i32 384, i1 false, null, null, i32 0, metadata !54, i32 1471} ; [ DW_TAG_subprogram ]
!119 = metadata !{i32 786453, i32 0, metadata !"", i32 0, i32 0, i64 0, i64 0, i64 0, i32 0, null, metadata !120, i32 0, i32 0} ; [ DW_TAG_subroutine_type ]
!120 = metadata !{null, metadata !64, metadata !121}
!121 = metadata !{i32 786454, null, metadata !"ap_ulong", metadata !42, i32 111, i64 0, i64 0, i64 0, i32 0, metadata !122} ; [ DW_TAG_typedef ]
!122 = metadata !{i32 786468, null, metadata !"long long unsigned int", null, i32 0, i64 64, i64 64, i64 0, i32 0, i32 7} ; [ DW_TAG_base_type ]
!123 = metadata !{i32 786478, i32 0, metadata !41, metadata !"ap_int_base", metadata !"ap_int_base", metadata !"", metadata !42, i32 1472, metadata !124, i1 false, i1 false, i32 0, i32 0, null, i32 384, i1 false, null, null, i32 0, metadata !54, i32 1472} ; [ DW_TAG_subprogram ]
!124 = metadata !{i32 786453, i32 0, metadata !"", i32 0, i32 0, i64 0, i64 0, i64 0, i32 0, null, metadata !125, i32 0, i32 0} ; [ DW_TAG_subroutine_type ]
!125 = metadata !{null, metadata !64, metadata !126}
!126 = metadata !{i32 786454, null, metadata !"half", metadata !42, i32 54, i64 0, i64 0, i64 0, i32 0, metadata !127} ; [ DW_TAG_typedef ]
!127 = metadata !{i32 786468, null, metadata !"half", null, i32 0, i64 16, i64 16, i64 0, i32 0, i32 4} ; [ DW_TAG_base_type ]
!128 = metadata !{i32 786478, i32 0, metadata !41, metadata !"ap_int_base", metadata !"ap_int_base", metadata !"", metadata !42, i32 1473, metadata !129, i1 false, i1 false, i32 0, i32 0, null, i32 384, i1 false, null, null, i32 0, metadata !54, i32 1473} ; [ DW_TAG_subprogram ]
!129 = metadata !{i32 786453, i32 0, metadata !"", i32 0, i32 0, i64 0, i64 0, i64 0, i32 0, null, metadata !130, i32 0, i32 0} ; [ DW_TAG_subroutine_type ]
!130 = metadata !{null, metadata !64, metadata !131}
!131 = metadata !{i32 786468, null, metadata !"float", null, i32 0, i64 32, i64 32, i64 0, i32 0, i32 4} ; [ DW_TAG_base_type ]
!132 = metadata !{i32 786478, i32 0, metadata !41, metadata !"ap_int_base", metadata !"ap_int_base", metadata !"", metadata !42, i32 1474, metadata !133, i1 false, i1 false, i32 0, i32 0, null, i32 384, i1 false, null, null, i32 0, metadata !54, i32 1474} ; [ DW_TAG_subprogram ]
!133 = metadata !{i32 786453, i32 0, metadata !"", i32 0, i32 0, i64 0, i64 0, i64 0, i32 0, null, metadata !134, i32 0, i32 0} ; [ DW_TAG_subroutine_type ]
!134 = metadata !{null, metadata !64, metadata !135}
!135 = metadata !{i32 786468, null, metadata !"double", null, i32 0, i64 64, i64 64, i64 0, i32 0, i32 4} ; [ DW_TAG_base_type ]
!136 = metadata !{i32 786478, i32 0, metadata !41, metadata !"ap_int_base", metadata !"ap_int_base", metadata !"", metadata !42, i32 1501, metadata !137, i1 false, i1 false, i32 0, i32 0, null, i32 256, i1 false, null, null, i32 0, metadata !54, i32 1501} ; [ DW_TAG_subprogram ]
!137 = metadata !{i32 786453, i32 0, metadata !"", i32 0, i32 0, i64 0, i64 0, i64 0, i32 0, null, metadata !138, i32 0, i32 0} ; [ DW_TAG_subroutine_type ]
!138 = metadata !{null, metadata !64, metadata !139}
!139 = metadata !{i32 786447, null, metadata !"", null, i32 0, i64 32, i64 32, i64 0, i32 0, metadata !140} ; [ DW_TAG_pointer_type ]
!140 = metadata !{i32 786470, null, metadata !"", null, i32 0, i64 0, i64 0, i64 0, i32 0, metadata !141} ; [ DW_TAG_const_type ]
!141 = metadata !{i32 786468, null, metadata !"char", null, i32 0, i64 8, i64 8, i64 0, i32 0, i32 6} ; [ DW_TAG_base_type ]
!142 = metadata !{i32 786478, i32 0, metadata !41, metadata !"ap_int_base", metadata !"ap_int_base", metadata !"", metadata !42, i32 1508, metadata !143, i1 false, i1 false, i32 0, i32 0, null, i32 256, i1 false, null, null, i32 0, metadata !54, i32 1508} ; [ DW_TAG_subprogram ]
!143 = metadata !{i32 786453, i32 0, metadata !"", i32 0, i32 0, i64 0, i64 0, i64 0, i32 0, null, metadata !144, i32 0, i32 0} ; [ DW_TAG_subroutine_type ]
!144 = metadata !{null, metadata !64, metadata !139, metadata !85}
!145 = metadata !{i32 786478, i32 0, metadata !41, metadata !"read", metadata !"read", metadata !"_ZNV11ap_int_baseILi1ELb0ELb1EE4readEv", metadata !42, i32 1529, metadata !146, i1 false, i1 false, i32 0, i32 0, null, i32 256, i1 false, null, null, i32 0, metadata !54, i32 1529} ; [ DW_TAG_subprogram ]
!146 = metadata !{i32 786453, i32 0, metadata !"", i32 0, i32 0, i64 0, i64 0, i64 0, i32 0, null, metadata !147, i32 0, i32 0} ; [ DW_TAG_subroutine_type ]
!147 = metadata !{metadata !41, metadata !148}
!148 = metadata !{i32 786447, i32 0, metadata !"", i32 0, i32 0, i64 32, i64 32, i64 0, i32 64, metadata !78} ; [ DW_TAG_pointer_type ]
!149 = metadata !{i32 786478, i32 0, metadata !41, metadata !"write", metadata !"write", metadata !"_ZNV11ap_int_baseILi1ELb0ELb1EE5writeERKS0_", metadata !42, i32 1535, metadata !150, i1 false, i1 false, i32 0, i32 0, null, i32 256, i1 false, null, null, i32 0, metadata !54, i32 1535} ; [ DW_TAG_subprogram ]
!150 = metadata !{i32 786453, i32 0, metadata !"", i32 0, i32 0, i64 0, i64 0, i64 0, i32 0, null, metadata !151, i32 0, i32 0} ; [ DW_TAG_subroutine_type ]
!151 = metadata !{null, metadata !148, metadata !68}
!152 = metadata !{i32 786478, i32 0, metadata !41, metadata !"operator=", metadata !"operator=", metadata !"_ZNV11ap_int_baseILi1ELb0ELb1EEaSERVKS0_", metadata !42, i32 1547, metadata !153, i1 false, i1 false, i32 0, i32 0, null, i32 256, i1 false, null, null, i32 0, metadata !54, i32 1547} ; [ DW_TAG_subprogram ]
!153 = metadata !{i32 786453, i32 0, metadata !"", i32 0, i32 0, i64 0, i64 0, i64 0, i32 0, null, metadata !154, i32 0, i32 0} ; [ DW_TAG_subroutine_type ]
!154 = metadata !{null, metadata !148, metadata !76}
!155 = metadata !{i32 786478, i32 0, metadata !41, metadata !"operator=", metadata !"operator=", metadata !"_ZNV11ap_int_baseILi1ELb0ELb1EEaSERKS0_", metadata !42, i32 1556, metadata !150, i1 false, i1 false, i32 0, i32 0, null, i32 256, i1 false, null, null, i32 0, metadata !54, i32 1556} ; [ DW_TAG_subprogram ]
!156 = metadata !{i32 786478, i32 0, metadata !41, metadata !"operator=", metadata !"operator=", metadata !"_ZN11ap_int_baseILi1ELb0ELb1EEaSERVKS0_", metadata !42, i32 1579, metadata !157, i1 false, i1 false, i32 0, i32 0, null, i32 256, i1 false, null, null, i32 0, metadata !54, i32 1579} ; [ DW_TAG_subprogram ]
!157 = metadata !{i32 786453, i32 0, metadata !"", i32 0, i32 0, i64 0, i64 0, i64 0, i32 0, null, metadata !158, i32 0, i32 0} ; [ DW_TAG_subroutine_type ]
!158 = metadata !{metadata !159, metadata !64, metadata !76}
!159 = metadata !{i32 786448, null, null, null, i32 0, i64 0, i64 0, i64 0, i32 0, metadata !41} ; [ DW_TAG_reference_type ]
!160 = metadata !{i32 786478, i32 0, metadata !41, metadata !"operator=", metadata !"operator=", metadata !"_ZN11ap_int_baseILi1ELb0ELb1EEaSERKS0_", metadata !42, i32 1584, metadata !161, i1 false, i1 false, i32 0, i32 0, null, i32 256, i1 false, null, null, i32 0, metadata !54, i32 1584} ; [ DW_TAG_subprogram ]
!161 = metadata !{i32 786453, i32 0, metadata !"", i32 0, i32 0, i64 0, i64 0, i64 0, i32 0, null, metadata !162, i32 0, i32 0} ; [ DW_TAG_subroutine_type ]
!162 = metadata !{metadata !159, metadata !64, metadata !68}
!163 = metadata !{i32 786478, i32 0, metadata !41, metadata !"operator=", metadata !"operator=", metadata !"_ZN11ap_int_baseILi1ELb0ELb1EEaSEPKc", metadata !42, i32 1588, metadata !164, i1 false, i1 false, i32 0, i32 0, null, i32 256, i1 false, null, null, i32 0, metadata !54, i32 1588} ; [ DW_TAG_subprogram ]
!164 = metadata !{i32 786453, i32 0, metadata !"", i32 0, i32 0, i64 0, i64 0, i64 0, i32 0, null, metadata !165, i32 0, i32 0} ; [ DW_TAG_subroutine_type ]
!165 = metadata !{metadata !159, metadata !64, metadata !139}
!166 = metadata !{i32 786478, i32 0, metadata !41, metadata !"set", metadata !"set", metadata !"_ZN11ap_int_baseILi1ELb0ELb1EE3setEPKca", metadata !42, i32 1596, metadata !167, i1 false, i1 false, i32 0, i32 0, null, i32 256, i1 false, null, null, i32 0, metadata !54, i32 1596} ; [ DW_TAG_subprogram ]
!167 = metadata !{i32 786453, i32 0, metadata !"", i32 0, i32 0, i64 0, i64 0, i64 0, i32 0, null, metadata !168, i32 0, i32 0} ; [ DW_TAG_subroutine_type ]
!168 = metadata !{metadata !159, metadata !64, metadata !139, metadata !85}
!169 = metadata !{i32 786478, i32 0, metadata !41, metadata !"operator=", metadata !"operator=", metadata !"_ZN11ap_int_baseILi1ELb0ELb1EEaSEa", metadata !42, i32 1610, metadata !170, i1 false, i1 false, i32 0, i32 0, null, i32 256, i1 false, null, null, i32 0, metadata !54, i32 1610} ; [ DW_TAG_subprogram ]
!170 = metadata !{i32 786453, i32 0, metadata !"", i32 0, i32 0, i64 0, i64 0, i64 0, i32 0, null, metadata !171, i32 0, i32 0} ; [ DW_TAG_subroutine_type ]
!171 = metadata !{metadata !159, metadata !64, metadata !85}
!172 = metadata !{i32 786478, i32 0, metadata !41, metadata !"operator=", metadata !"operator=", metadata !"_ZN11ap_int_baseILi1ELb0ELb1EEaSEh", metadata !42, i32 1611, metadata !173, i1 false, i1 false, i32 0, i32 0, null, i32 256, i1 false, null, null, i32 0, metadata !54, i32 1611} ; [ DW_TAG_subprogram ]
!173 = metadata !{i32 786453, i32 0, metadata !"", i32 0, i32 0, i64 0, i64 0, i64 0, i32 0, null, metadata !174, i32 0, i32 0} ; [ DW_TAG_subroutine_type ]
!174 = metadata !{metadata !159, metadata !64, metadata !89}
!175 = metadata !{i32 786478, i32 0, metadata !41, metadata !"operator=", metadata !"operator=", metadata !"_ZN11ap_int_baseILi1ELb0ELb1EEaSEs", metadata !42, i32 1612, metadata !176, i1 false, i1 false, i32 0, i32 0, null, i32 256, i1 false, null, null, i32 0, metadata !54, i32 1612} ; [ DW_TAG_subprogram ]
!176 = metadata !{i32 786453, i32 0, metadata !"", i32 0, i32 0, i64 0, i64 0, i64 0, i32 0, null, metadata !177, i32 0, i32 0} ; [ DW_TAG_subroutine_type ]
!177 = metadata !{metadata !159, metadata !64, metadata !93}
!178 = metadata !{i32 786478, i32 0, metadata !41, metadata !"operator=", metadata !"operator=", metadata !"_ZN11ap_int_baseILi1ELb0ELb1EEaSEt", metadata !42, i32 1613, metadata !179, i1 false, i1 false, i32 0, i32 0, null, i32 256, i1 false, null, null, i32 0, metadata !54, i32 1613} ; [ DW_TAG_subprogram ]
!179 = metadata !{i32 786453, i32 0, metadata !"", i32 0, i32 0, i64 0, i64 0, i64 0, i32 0, null, metadata !180, i32 0, i32 0} ; [ DW_TAG_subroutine_type ]
!180 = metadata !{metadata !159, metadata !64, metadata !97}
!181 = metadata !{i32 786478, i32 0, metadata !41, metadata !"operator=", metadata !"operator=", metadata !"_ZN11ap_int_baseILi1ELb0ELb1EEaSEi", metadata !42, i32 1614, metadata !182, i1 false, i1 false, i32 0, i32 0, null, i32 256, i1 false, null, null, i32 0, metadata !54, i32 1614} ; [ DW_TAG_subprogram ]
!182 = metadata !{i32 786453, i32 0, metadata !"", i32 0, i32 0, i64 0, i64 0, i64 0, i32 0, null, metadata !183, i32 0, i32 0} ; [ DW_TAG_subroutine_type ]
!183 = metadata !{metadata !159, metadata !64, metadata !58}
!184 = metadata !{i32 786478, i32 0, metadata !41, metadata !"operator=", metadata !"operator=", metadata !"_ZN11ap_int_baseILi1ELb0ELb1EEaSEj", metadata !42, i32 1615, metadata !185, i1 false, i1 false, i32 0, i32 0, null, i32 256, i1 false, null, null, i32 0, metadata !54, i32 1615} ; [ DW_TAG_subprogram ]
!185 = metadata !{i32 786453, i32 0, metadata !"", i32 0, i32 0, i64 0, i64 0, i64 0, i32 0, null, metadata !186, i32 0, i32 0} ; [ DW_TAG_subroutine_type ]
!186 = metadata !{metadata !159, metadata !64, metadata !104}
!187 = metadata !{i32 786478, i32 0, metadata !41, metadata !"operator=", metadata !"operator=", metadata !"_ZN11ap_int_baseILi1ELb0ELb1EEaSEx", metadata !42, i32 1616, metadata !188, i1 false, i1 false, i32 0, i32 0, null, i32 256, i1 false, null, null, i32 0, metadata !54, i32 1616} ; [ DW_TAG_subprogram ]
!188 = metadata !{i32 786453, i32 0, metadata !"", i32 0, i32 0, i64 0, i64 0, i64 0, i32 0, null, metadata !189, i32 0, i32 0} ; [ DW_TAG_subroutine_type ]
!189 = metadata !{metadata !159, metadata !64, metadata !116}
!190 = metadata !{i32 786478, i32 0, metadata !41, metadata !"operator=", metadata !"operator=", metadata !"_ZN11ap_int_baseILi1ELb0ELb1EEaSEy", metadata !42, i32 1617, metadata !191, i1 false, i1 false, i32 0, i32 0, null, i32 256, i1 false, null, null, i32 0, metadata !54, i32 1617} ; [ DW_TAG_subprogram ]
!191 = metadata !{i32 786453, i32 0, metadata !"", i32 0, i32 0, i64 0, i64 0, i64 0, i32 0, null, metadata !192, i32 0, i32 0} ; [ DW_TAG_subroutine_type ]
!192 = metadata !{metadata !159, metadata !64, metadata !121}
!193 = metadata !{i32 786478, i32 0, metadata !41, metadata !"operator unsigned char", metadata !"operator unsigned char", metadata !"_ZNK11ap_int_baseILi1ELb0ELb1EEcvhEv", metadata !42, i32 1655, metadata !194, i1 false, i1 false, i32 0, i32 0, null, i32 256, i1 false, null, null, i32 0, metadata !54, i32 1655} ; [ DW_TAG_subprogram ]
!194 = metadata !{i32 786453, i32 0, metadata !"", i32 0, i32 0, i64 0, i64 0, i64 0, i32 0, null, metadata !195, i32 0, i32 0} ; [ DW_TAG_subroutine_type ]
!195 = metadata !{metadata !196, metadata !200}
!196 = metadata !{i32 786454, metadata !41, metadata !"RetType", metadata !42, i32 1403, i64 0, i64 0, i64 0, i32 0, metadata !197} ; [ DW_TAG_typedef ]
!197 = metadata !{i32 786454, metadata !198, metadata !"Type", metadata !42, i32 1371, i64 0, i64 0, i64 0, i32 0, metadata !89} ; [ DW_TAG_typedef ]
!198 = metadata !{i32 786434, null, metadata !"retval<1, false>", metadata !42, i32 1370, i64 8, i64 8, i32 0, i32 0, null, metadata !199, i32 0, null, metadata !56} ; [ DW_TAG_class_type ]
!199 = metadata !{i32 0}
!200 = metadata !{i32 786447, i32 0, metadata !"", i32 0, i32 0, i64 32, i64 32, i64 0, i32 64, metadata !69} ; [ DW_TAG_pointer_type ]
!201 = metadata !{i32 786478, i32 0, metadata !41, metadata !"to_bool", metadata !"to_bool", metadata !"_ZNK11ap_int_baseILi1ELb0ELb1EE7to_boolEv", metadata !42, i32 1661, metadata !202, i1 false, i1 false, i32 0, i32 0, null, i32 256, i1 false, null, null, i32 0, metadata !54, i32 1661} ; [ DW_TAG_subprogram ]
!202 = metadata !{i32 786453, i32 0, metadata !"", i32 0, i32 0, i64 0, i64 0, i64 0, i32 0, null, metadata !203, i32 0, i32 0} ; [ DW_TAG_subroutine_type ]
!203 = metadata !{metadata !60, metadata !200}
!204 = metadata !{i32 786478, i32 0, metadata !41, metadata !"to_uchar", metadata !"to_uchar", metadata !"_ZNK11ap_int_baseILi1ELb0ELb1EE8to_ucharEv", metadata !42, i32 1662, metadata !205, i1 false, i1 false, i32 0, i32 0, null, i32 256, i1 false, null, null, i32 0, metadata !54, i32 1662} ; [ DW_TAG_subprogram ]
!205 = metadata !{i32 786453, i32 0, metadata !"", i32 0, i32 0, i64 0, i64 0, i64 0, i32 0, null, metadata !206, i32 0, i32 0} ; [ DW_TAG_subroutine_type ]
!206 = metadata !{metadata !89, metadata !200}
!207 = metadata !{i32 786478, i32 0, metadata !41, metadata !"to_char", metadata !"to_char", metadata !"_ZNK11ap_int_baseILi1ELb0ELb1EE7to_charEv", metadata !42, i32 1663, metadata !208, i1 false, i1 false, i32 0, i32 0, null, i32 256, i1 false, null, null, i32 0, metadata !54, i32 1663} ; [ DW_TAG_subprogram ]
!208 = metadata !{i32 786453, i32 0, metadata !"", i32 0, i32 0, i64 0, i64 0, i64 0, i32 0, null, metadata !209, i32 0, i32 0} ; [ DW_TAG_subroutine_type ]
!209 = metadata !{metadata !85, metadata !200}
!210 = metadata !{i32 786478, i32 0, metadata !41, metadata !"to_ushort", metadata !"to_ushort", metadata !"_ZNK11ap_int_baseILi1ELb0ELb1EE9to_ushortEv", metadata !42, i32 1664, metadata !211, i1 false, i1 false, i32 0, i32 0, null, i32 256, i1 false, null, null, i32 0, metadata !54, i32 1664} ; [ DW_TAG_subprogram ]
!211 = metadata !{i32 786453, i32 0, metadata !"", i32 0, i32 0, i64 0, i64 0, i64 0, i32 0, null, metadata !212, i32 0, i32 0} ; [ DW_TAG_subroutine_type ]
!212 = metadata !{metadata !97, metadata !200}
!213 = metadata !{i32 786478, i32 0, metadata !41, metadata !"to_short", metadata !"to_short", metadata !"_ZNK11ap_int_baseILi1ELb0ELb1EE8to_shortEv", metadata !42, i32 1665, metadata !214, i1 false, i1 false, i32 0, i32 0, null, i32 256, i1 false, null, null, i32 0, metadata !54, i32 1665} ; [ DW_TAG_subprogram ]
!214 = metadata !{i32 786453, i32 0, metadata !"", i32 0, i32 0, i64 0, i64 0, i64 0, i32 0, null, metadata !215, i32 0, i32 0} ; [ DW_TAG_subroutine_type ]
!215 = metadata !{metadata !93, metadata !200}
!216 = metadata !{i32 786478, i32 0, metadata !41, metadata !"to_int", metadata !"to_int", metadata !"_ZNK11ap_int_baseILi1ELb0ELb1EE6to_intEv", metadata !42, i32 1666, metadata !217, i1 false, i1 false, i32 0, i32 0, null, i32 256, i1 false, null, null, i32 0, metadata !54, i32 1666} ; [ DW_TAG_subprogram ]
!217 = metadata !{i32 786453, i32 0, metadata !"", i32 0, i32 0, i64 0, i64 0, i64 0, i32 0, null, metadata !218, i32 0, i32 0} ; [ DW_TAG_subroutine_type ]
!218 = metadata !{metadata !58, metadata !200}
!219 = metadata !{i32 786478, i32 0, metadata !41, metadata !"to_uint", metadata !"to_uint", metadata !"_ZNK11ap_int_baseILi1ELb0ELb1EE7to_uintEv", metadata !42, i32 1667, metadata !220, i1 false, i1 false, i32 0, i32 0, null, i32 256, i1 false, null, null, i32 0, metadata !54, i32 1667} ; [ DW_TAG_subprogram ]
!220 = metadata !{i32 786453, i32 0, metadata !"", i32 0, i32 0, i64 0, i64 0, i64 0, i32 0, null, metadata !221, i32 0, i32 0} ; [ DW_TAG_subroutine_type ]
!221 = metadata !{metadata !104, metadata !200}
!222 = metadata !{i32 786478, i32 0, metadata !41, metadata !"to_long", metadata !"to_long", metadata !"_ZNK11ap_int_baseILi1ELb0ELb1EE7to_longEv", metadata !42, i32 1668, metadata !223, i1 false, i1 false, i32 0, i32 0, null, i32 256, i1 false, null, null, i32 0, metadata !54, i32 1668} ; [ DW_TAG_subprogram ]
!223 = metadata !{i32 786453, i32 0, metadata !"", i32 0, i32 0, i64 0, i64 0, i64 0, i32 0, null, metadata !224, i32 0, i32 0} ; [ DW_TAG_subroutine_type ]
!224 = metadata !{metadata !108, metadata !200}
!225 = metadata !{i32 786478, i32 0, metadata !41, metadata !"to_ulong", metadata !"to_ulong", metadata !"_ZNK11ap_int_baseILi1ELb0ELb1EE8to_ulongEv", metadata !42, i32 1669, metadata !226, i1 false, i1 false, i32 0, i32 0, null, i32 256, i1 false, null, null, i32 0, metadata !54, i32 1669} ; [ DW_TAG_subprogram ]
!226 = metadata !{i32 786453, i32 0, metadata !"", i32 0, i32 0, i64 0, i64 0, i64 0, i32 0, null, metadata !227, i32 0, i32 0} ; [ DW_TAG_subroutine_type ]
!227 = metadata !{metadata !112, metadata !200}
!228 = metadata !{i32 786478, i32 0, metadata !41, metadata !"to_int64", metadata !"to_int64", metadata !"_ZNK11ap_int_baseILi1ELb0ELb1EE8to_int64Ev", metadata !42, i32 1670, metadata !229, i1 false, i1 false, i32 0, i32 0, null, i32 256, i1 false, null, null, i32 0, metadata !54, i32 1670} ; [ DW_TAG_subprogram ]
!229 = metadata !{i32 786453, i32 0, metadata !"", i32 0, i32 0, i64 0, i64 0, i64 0, i32 0, null, metadata !230, i32 0, i32 0} ; [ DW_TAG_subroutine_type ]
!230 = metadata !{metadata !116, metadata !200}
!231 = metadata !{i32 786478, i32 0, metadata !41, metadata !"to_uint64", metadata !"to_uint64", metadata !"_ZNK11ap_int_baseILi1ELb0ELb1EE9to_uint64Ev", metadata !42, i32 1671, metadata !232, i1 false, i1 false, i32 0, i32 0, null, i32 256, i1 false, null, null, i32 0, metadata !54, i32 1671} ; [ DW_TAG_subprogram ]
!232 = metadata !{i32 786453, i32 0, metadata !"", i32 0, i32 0, i64 0, i64 0, i64 0, i32 0, null, metadata !233, i32 0, i32 0} ; [ DW_TAG_subroutine_type ]
!233 = metadata !{metadata !121, metadata !200}
!234 = metadata !{i32 786478, i32 0, metadata !41, metadata !"to_double", metadata !"to_double", metadata !"_ZNK11ap_int_baseILi1ELb0ELb1EE9to_doubleEv", metadata !42, i32 1672, metadata !235, i1 false, i1 false, i32 0, i32 0, null, i32 256, i1 false, null, null, i32 0, metadata !54, i32 1672} ; [ DW_TAG_subprogram ]
!235 = metadata !{i32 786453, i32 0, metadata !"", i32 0, i32 0, i64 0, i64 0, i64 0, i32 0, null, metadata !236, i32 0, i32 0} ; [ DW_TAG_subroutine_type ]
!236 = metadata !{metadata !135, metadata !200}
!237 = metadata !{i32 786478, i32 0, metadata !41, metadata !"length", metadata !"length", metadata !"_ZNK11ap_int_baseILi1ELb0ELb1EE6lengthEv", metadata !42, i32 1686, metadata !217, i1 false, i1 false, i32 0, i32 0, null, i32 256, i1 false, null, null, i32 0, metadata !54, i32 1686} ; [ DW_TAG_subprogram ]
!238 = metadata !{i32 786478, i32 0, metadata !41, metadata !"length", metadata !"length", metadata !"_ZNVK11ap_int_baseILi1ELb0ELb1EE6lengthEv", metadata !42, i32 1687, metadata !239, i1 false, i1 false, i32 0, i32 0, null, i32 256, i1 false, null, null, i32 0, metadata !54, i32 1687} ; [ DW_TAG_subprogram ]
!239 = metadata !{i32 786453, i32 0, metadata !"", i32 0, i32 0, i64 0, i64 0, i64 0, i32 0, null, metadata !240, i32 0, i32 0} ; [ DW_TAG_subroutine_type ]
!240 = metadata !{metadata !58, metadata !241}
!241 = metadata !{i32 786447, i32 0, metadata !"", i32 0, i32 0, i64 32, i64 32, i64 0, i32 64, metadata !77} ; [ DW_TAG_pointer_type ]
!242 = metadata !{i32 786478, i32 0, metadata !41, metadata !"reverse", metadata !"reverse", metadata !"_ZN11ap_int_baseILi1ELb0ELb1EE7reverseEv", metadata !42, i32 1692, metadata !243, i1 false, i1 false, i32 0, i32 0, null, i32 256, i1 false, null, null, i32 0, metadata !54, i32 1692} ; [ DW_TAG_subprogram ]
!243 = metadata !{i32 786453, i32 0, metadata !"", i32 0, i32 0, i64 0, i64 0, i64 0, i32 0, null, metadata !244, i32 0, i32 0} ; [ DW_TAG_subroutine_type ]
!244 = metadata !{metadata !159, metadata !64}
!245 = metadata !{i32 786478, i32 0, metadata !41, metadata !"iszero", metadata !"iszero", metadata !"_ZNK11ap_int_baseILi1ELb0ELb1EE6iszeroEv", metadata !42, i32 1698, metadata !202, i1 false, i1 false, i32 0, i32 0, null, i32 256, i1 false, null, null, i32 0, metadata !54, i32 1698} ; [ DW_TAG_subprogram ]
!246 = metadata !{i32 786478, i32 0, metadata !41, metadata !"is_zero", metadata !"is_zero", metadata !"_ZNK11ap_int_baseILi1ELb0ELb1EE7is_zeroEv", metadata !42, i32 1703, metadata !202, i1 false, i1 false, i32 0, i32 0, null, i32 256, i1 false, null, null, i32 0, metadata !54, i32 1703} ; [ DW_TAG_subprogram ]
!247 = metadata !{i32 786478, i32 0, metadata !41, metadata !"sign", metadata !"sign", metadata !"_ZNK11ap_int_baseILi1ELb0ELb1EE4signEv", metadata !42, i32 1708, metadata !202, i1 false, i1 false, i32 0, i32 0, null, i32 256, i1 false, null, null, i32 0, metadata !54, i32 1708} ; [ DW_TAG_subprogram ]
!248 = metadata !{i32 786478, i32 0, metadata !41, metadata !"clear", metadata !"clear", metadata !"_ZN11ap_int_baseILi1ELb0ELb1EE5clearEi", metadata !42, i32 1716, metadata !99, i1 false, i1 false, i32 0, i32 0, null, i32 256, i1 false, null, null, i32 0, metadata !54, i32 1716} ; [ DW_TAG_subprogram ]
!249 = metadata !{i32 786478, i32 0, metadata !41, metadata !"invert", metadata !"invert", metadata !"_ZN11ap_int_baseILi1ELb0ELb1EE6invertEi", metadata !42, i32 1722, metadata !99, i1 false, i1 false, i32 0, i32 0, null, i32 256, i1 false, null, null, i32 0, metadata !54, i32 1722} ; [ DW_TAG_subprogram ]
!250 = metadata !{i32 786478, i32 0, metadata !41, metadata !"test", metadata !"test", metadata !"_ZNK11ap_int_baseILi1ELb0ELb1EE4testEi", metadata !42, i32 1730, metadata !251, i1 false, i1 false, i32 0, i32 0, null, i32 256, i1 false, null, null, i32 0, metadata !54, i32 1730} ; [ DW_TAG_subprogram ]
!251 = metadata !{i32 786453, i32 0, metadata !"", i32 0, i32 0, i64 0, i64 0, i64 0, i32 0, null, metadata !252, i32 0, i32 0} ; [ DW_TAG_subroutine_type ]
!252 = metadata !{metadata !60, metadata !200, metadata !58}
!253 = metadata !{i32 786478, i32 0, metadata !41, metadata !"set", metadata !"set", metadata !"_ZN11ap_int_baseILi1ELb0ELb1EE3setEi", metadata !42, i32 1736, metadata !99, i1 false, i1 false, i32 0, i32 0, null, i32 256, i1 false, null, null, i32 0, metadata !54, i32 1736} ; [ DW_TAG_subprogram ]
!254 = metadata !{i32 786478, i32 0, metadata !41, metadata !"set", metadata !"set", metadata !"_ZN11ap_int_baseILi1ELb0ELb1EE3setEib", metadata !42, i32 1742, metadata !255, i1 false, i1 false, i32 0, i32 0, null, i32 256, i1 false, null, null, i32 0, metadata !54, i32 1742} ; [ DW_TAG_subprogram ]
!255 = metadata !{i32 786453, i32 0, metadata !"", i32 0, i32 0, i64 0, i64 0, i64 0, i32 0, null, metadata !256, i32 0, i32 0} ; [ DW_TAG_subroutine_type ]
!256 = metadata !{null, metadata !64, metadata !58, metadata !60}
!257 = metadata !{i32 786478, i32 0, metadata !41, metadata !"lrotate", metadata !"lrotate", metadata !"_ZN11ap_int_baseILi1ELb0ELb1EE7lrotateEi", metadata !42, i32 1749, metadata !99, i1 false, i1 false, i32 0, i32 0, null, i32 256, i1 false, null, null, i32 0, metadata !54, i32 1749} ; [ DW_TAG_subprogram ]
!258 = metadata !{i32 786478, i32 0, metadata !41, metadata !"rrotate", metadata !"rrotate", metadata !"_ZN11ap_int_baseILi1ELb0ELb1EE7rrotateEi", metadata !42, i32 1758, metadata !99, i1 false, i1 false, i32 0, i32 0, null, i32 256, i1 false, null, null, i32 0, metadata !54, i32 1758} ; [ DW_TAG_subprogram ]
!259 = metadata !{i32 786478, i32 0, metadata !41, metadata !"set_bit", metadata !"set_bit", metadata !"_ZN11ap_int_baseILi1ELb0ELb1EE7set_bitEib", metadata !42, i32 1766, metadata !255, i1 false, i1 false, i32 0, i32 0, null, i32 256, i1 false, null, null, i32 0, metadata !54, i32 1766} ; [ DW_TAG_subprogram ]
!260 = metadata !{i32 786478, i32 0, metadata !41, metadata !"get_bit", metadata !"get_bit", metadata !"_ZNK11ap_int_baseILi1ELb0ELb1EE7get_bitEi", metadata !42, i32 1771, metadata !251, i1 false, i1 false, i32 0, i32 0, null, i32 256, i1 false, null, null, i32 0, metadata !54, i32 1771} ; [ DW_TAG_subprogram ]
!261 = metadata !{i32 786478, i32 0, metadata !41, metadata !"b_not", metadata !"b_not", metadata !"_ZN11ap_int_baseILi1ELb0ELb1EE5b_notEv", metadata !42, i32 1776, metadata !62, i1 false, i1 false, i32 0, i32 0, null, i32 256, i1 false, null, null, i32 0, metadata !54, i32 1776} ; [ DW_TAG_subprogram ]
!262 = metadata !{i32 786478, i32 0, metadata !41, metadata !"countLeadingZeros", metadata !"countLeadingZeros", metadata !"_ZN11ap_int_baseILi1ELb0ELb1EE17countLeadingZerosEv", metadata !42, i32 1783, metadata !263, i1 false, i1 false, i32 0, i32 0, null, i32 256, i1 false, null, null, i32 0, metadata !54, i32 1783} ; [ DW_TAG_subprogram ]
!263 = metadata !{i32 786453, i32 0, metadata !"", i32 0, i32 0, i64 0, i64 0, i64 0, i32 0, null, metadata !264, i32 0, i32 0} ; [ DW_TAG_subroutine_type ]
!264 = metadata !{metadata !58, metadata !64}
!265 = metadata !{i32 786478, i32 0, metadata !41, metadata !"operator++", metadata !"operator++", metadata !"_ZN11ap_int_baseILi1ELb0ELb1EEppEv", metadata !42, i32 1840, metadata !243, i1 false, i1 false, i32 0, i32 0, null, i32 256, i1 false, null, null, i32 0, metadata !54, i32 1840} ; [ DW_TAG_subprogram ]
!266 = metadata !{i32 786478, i32 0, metadata !41, metadata !"operator--", metadata !"operator--", metadata !"_ZN11ap_int_baseILi1ELb0ELb1EEmmEv", metadata !42, i32 1844, metadata !243, i1 false, i1 false, i32 0, i32 0, null, i32 256, i1 false, null, null, i32 0, metadata !54, i32 1844} ; [ DW_TAG_subprogram ]
!267 = metadata !{i32 786478, i32 0, metadata !41, metadata !"operator++", metadata !"operator++", metadata !"_ZN11ap_int_baseILi1ELb0ELb1EEppEi", metadata !42, i32 1852, metadata !268, i1 false, i1 false, i32 0, i32 0, null, i32 256, i1 false, null, null, i32 0, metadata !54, i32 1852} ; [ DW_TAG_subprogram ]
!268 = metadata !{i32 786453, i32 0, metadata !"", i32 0, i32 0, i64 0, i64 0, i64 0, i32 0, null, metadata !269, i32 0, i32 0} ; [ DW_TAG_subroutine_type ]
!269 = metadata !{metadata !69, metadata !64, metadata !58}
!270 = metadata !{i32 786478, i32 0, metadata !41, metadata !"operator--", metadata !"operator--", metadata !"_ZN11ap_int_baseILi1ELb0ELb1EEmmEi", metadata !42, i32 1857, metadata !268, i1 false, i1 false, i32 0, i32 0, null, i32 256, i1 false, null, null, i32 0, metadata !54, i32 1857} ; [ DW_TAG_subprogram ]
!271 = metadata !{i32 786478, i32 0, metadata !41, metadata !"operator+", metadata !"operator+", metadata !"_ZNK11ap_int_baseILi1ELb0ELb1EEpsEv", metadata !42, i32 1866, metadata !272, i1 false, i1 false, i32 0, i32 0, null, i32 256, i1 false, null, null, i32 0, metadata !54, i32 1866} ; [ DW_TAG_subprogram ]
!272 = metadata !{i32 786453, i32 0, metadata !"", i32 0, i32 0, i64 0, i64 0, i64 0, i32 0, null, metadata !273, i32 0, i32 0} ; [ DW_TAG_subroutine_type ]
!273 = metadata !{metadata !41, metadata !200}
!274 = metadata !{i32 786478, i32 0, metadata !41, metadata !"operator!", metadata !"operator!", metadata !"_ZNK11ap_int_baseILi1ELb0ELb1EEntEv", metadata !42, i32 1872, metadata !202, i1 false, i1 false, i32 0, i32 0, null, i32 256, i1 false, null, null, i32 0, metadata !54, i32 1872} ; [ DW_TAG_subprogram ]
!275 = metadata !{i32 786478, i32 0, metadata !41, metadata !"operator-", metadata !"operator-", metadata !"_ZNK11ap_int_baseILi1ELb0ELb1EEngEv", metadata !42, i32 1877, metadata !276, i1 false, i1 false, i32 0, i32 0, null, i32 256, i1 false, null, null, i32 0, metadata !54, i32 1877} ; [ DW_TAG_subprogram ]
!276 = metadata !{i32 786453, i32 0, metadata !"", i32 0, i32 0, i64 0, i64 0, i64 0, i32 0, null, metadata !277, i32 0, i32 0} ; [ DW_TAG_subroutine_type ]
!277 = metadata !{metadata !278, metadata !200}
!278 = metadata !{i32 786434, null, metadata !"ap_int_base<2, true, true>", metadata !42, i32 651, i32 0, i32 0, i32 0, i32 4, null, null, i32 0} ; [ DW_TAG_class_type ]
!279 = metadata !{i32 786478, i32 0, metadata !41, metadata !"range", metadata !"range", metadata !"_ZN11ap_int_baseILi1ELb0ELb1EE5rangeEii", metadata !42, i32 2007, metadata !280, i1 false, i1 false, i32 0, i32 0, null, i32 256, i1 false, null, null, i32 0, metadata !54, i32 2007} ; [ DW_TAG_subprogram ]
!280 = metadata !{i32 786453, i32 0, metadata !"", i32 0, i32 0, i64 0, i64 0, i64 0, i32 0, null, metadata !281, i32 0, i32 0} ; [ DW_TAG_subroutine_type ]
!281 = metadata !{metadata !282, metadata !64, metadata !58, metadata !58}
!282 = metadata !{i32 786434, null, metadata !"ap_range_ref<1, false>", metadata !42, i32 924, i32 0, i32 0, i32 0, i32 4, null, null, i32 0} ; [ DW_TAG_class_type ]
!283 = metadata !{i32 786478, i32 0, metadata !41, metadata !"operator()", metadata !"operator()", metadata !"_ZN11ap_int_baseILi1ELb0ELb1EEclEii", metadata !42, i32 2013, metadata !280, i1 false, i1 false, i32 0, i32 0, null, i32 256, i1 false, null, null, i32 0, metadata !54, i32 2013} ; [ DW_TAG_subprogram ]
!284 = metadata !{i32 786478, i32 0, metadata !41, metadata !"range", metadata !"range", metadata !"_ZNK11ap_int_baseILi1ELb0ELb1EE5rangeEii", metadata !42, i32 2019, metadata !285, i1 false, i1 false, i32 0, i32 0, null, i32 256, i1 false, null, null, i32 0, metadata !54, i32 2019} ; [ DW_TAG_subprogram ]
!285 = metadata !{i32 786453, i32 0, metadata !"", i32 0, i32 0, i64 0, i64 0, i64 0, i32 0, null, metadata !286, i32 0, i32 0} ; [ DW_TAG_subroutine_type ]
!286 = metadata !{metadata !282, metadata !200, metadata !58, metadata !58}
!287 = metadata !{i32 786478, i32 0, metadata !41, metadata !"operator()", metadata !"operator()", metadata !"_ZNK11ap_int_baseILi1ELb0ELb1EEclEii", metadata !42, i32 2025, metadata !285, i1 false, i1 false, i32 0, i32 0, null, i32 256, i1 false, null, null, i32 0, metadata !54, i32 2025} ; [ DW_TAG_subprogram ]
!288 = metadata !{i32 786478, i32 0, metadata !41, metadata !"operator[]", metadata !"operator[]", metadata !"_ZN11ap_int_baseILi1ELb0ELb1EEixEi", metadata !42, i32 2044, metadata !289, i1 false, i1 false, i32 0, i32 0, null, i32 256, i1 false, null, null, i32 0, metadata !54, i32 2044} ; [ DW_TAG_subprogram ]
!289 = metadata !{i32 786453, i32 0, metadata !"", i32 0, i32 0, i64 0, i64 0, i64 0, i32 0, null, metadata !290, i32 0, i32 0} ; [ DW_TAG_subroutine_type ]
!290 = metadata !{metadata !291, metadata !64, metadata !58}
!291 = metadata !{i32 786434, null, metadata !"ap_bit_ref<1, false>", metadata !42, i32 1194, i32 0, i32 0, i32 0, i32 4, null, null, i32 0} ; [ DW_TAG_class_type ]
!292 = metadata !{i32 786478, i32 0, metadata !41, metadata !"operator[]", metadata !"operator[]", metadata !"_ZNK11ap_int_baseILi1ELb0ELb1EEixEi", metadata !42, i32 2058, metadata !251, i1 false, i1 false, i32 0, i32 0, null, i32 256, i1 false, null, null, i32 0, metadata !54, i32 2058} ; [ DW_TAG_subprogram ]
!293 = metadata !{i32 786478, i32 0, metadata !41, metadata !"bit", metadata !"bit", metadata !"_ZN11ap_int_baseILi1ELb0ELb1EE3bitEi", metadata !42, i32 2072, metadata !289, i1 false, i1 false, i32 0, i32 0, null, i32 256, i1 false, null, null, i32 0, metadata !54, i32 2072} ; [ DW_TAG_subprogram ]
!294 = metadata !{i32 786478, i32 0, metadata !41, metadata !"bit", metadata !"bit", metadata !"_ZNK11ap_int_baseILi1ELb0ELb1EE3bitEi", metadata !42, i32 2086, metadata !251, i1 false, i1 false, i32 0, i32 0, null, i32 256, i1 false, null, null, i32 0, metadata !54, i32 2086} ; [ DW_TAG_subprogram ]
!295 = metadata !{i32 786478, i32 0, metadata !41, metadata !"and_reduce", metadata !"and_reduce", metadata !"_ZN11ap_int_baseILi1ELb0ELb1EE10and_reduceEv", metadata !42, i32 2266, metadata !296, i1 false, i1 false, i32 0, i32 0, null, i32 256, i1 false, null, null, i32 0, metadata !54, i32 2266} ; [ DW_TAG_subprogram ]
!296 = metadata !{i32 786453, i32 0, metadata !"", i32 0, i32 0, i64 0, i64 0, i64 0, i32 0, null, metadata !297, i32 0, i32 0} ; [ DW_TAG_subroutine_type ]
!297 = metadata !{metadata !60, metadata !64}
!298 = metadata !{i32 786478, i32 0, metadata !41, metadata !"nand_reduce", metadata !"nand_reduce", metadata !"_ZN11ap_int_baseILi1ELb0ELb1EE11nand_reduceEv", metadata !42, i32 2269, metadata !296, i1 false, i1 false, i32 0, i32 0, null, i32 256, i1 false, null, null, i32 0, metadata !54, i32 2269} ; [ DW_TAG_subprogram ]
!299 = metadata !{i32 786478, i32 0, metadata !41, metadata !"or_reduce", metadata !"or_reduce", metadata !"_ZN11ap_int_baseILi1ELb0ELb1EE9or_reduceEv", metadata !42, i32 2272, metadata !296, i1 false, i1 false, i32 0, i32 0, null, i32 256, i1 false, null, null, i32 0, metadata !54, i32 2272} ; [ DW_TAG_subprogram ]
!300 = metadata !{i32 786478, i32 0, metadata !41, metadata !"nor_reduce", metadata !"nor_reduce", metadata !"_ZN11ap_int_baseILi1ELb0ELb1EE10nor_reduceEv", metadata !42, i32 2275, metadata !296, i1 false, i1 false, i32 0, i32 0, null, i32 256, i1 false, null, null, i32 0, metadata !54, i32 2275} ; [ DW_TAG_subprogram ]
!301 = metadata !{i32 786478, i32 0, metadata !41, metadata !"xor_reduce", metadata !"xor_reduce", metadata !"_ZN11ap_int_baseILi1ELb0ELb1EE10xor_reduceEv", metadata !42, i32 2278, metadata !296, i1 false, i1 false, i32 0, i32 0, null, i32 256, i1 false, null, null, i32 0, metadata !54, i32 2278} ; [ DW_TAG_subprogram ]
!302 = metadata !{i32 786478, i32 0, metadata !41, metadata !"xnor_reduce", metadata !"xnor_reduce", metadata !"_ZN11ap_int_baseILi1ELb0ELb1EE11xnor_reduceEv", metadata !42, i32 2281, metadata !296, i1 false, i1 false, i32 0, i32 0, null, i32 256, i1 false, null, null, i32 0, metadata !54, i32 2281} ; [ DW_TAG_subprogram ]
!303 = metadata !{i32 786478, i32 0, metadata !41, metadata !"and_reduce", metadata !"and_reduce", metadata !"_ZNK11ap_int_baseILi1ELb0ELb1EE10and_reduceEv", metadata !42, i32 2285, metadata !202, i1 false, i1 false, i32 0, i32 0, null, i32 256, i1 false, null, null, i32 0, metadata !54, i32 2285} ; [ DW_TAG_subprogram ]
!304 = metadata !{i32 786478, i32 0, metadata !41, metadata !"nand_reduce", metadata !"nand_reduce", metadata !"_ZNK11ap_int_baseILi1ELb0ELb1EE11nand_reduceEv", metadata !42, i32 2288, metadata !202, i1 false, i1 false, i32 0, i32 0, null, i32 256, i1 false, null, null, i32 0, metadata !54, i32 2288} ; [ DW_TAG_subprogram ]
!305 = metadata !{i32 786478, i32 0, metadata !41, metadata !"or_reduce", metadata !"or_reduce", metadata !"_ZNK11ap_int_baseILi1ELb0ELb1EE9or_reduceEv", metadata !42, i32 2291, metadata !202, i1 false, i1 false, i32 0, i32 0, null, i32 256, i1 false, null, null, i32 0, metadata !54, i32 2291} ; [ DW_TAG_subprogram ]
!306 = metadata !{i32 786478, i32 0, metadata !41, metadata !"nor_reduce", metadata !"nor_reduce", metadata !"_ZNK11ap_int_baseILi1ELb0ELb1EE10nor_reduceEv", metadata !42, i32 2294, metadata !202, i1 false, i1 false, i32 0, i32 0, null, i32 256, i1 false, null, null, i32 0, metadata !54, i32 2294} ; [ DW_TAG_subprogram ]
!307 = metadata !{i32 786478, i32 0, metadata !41, metadata !"xor_reduce", metadata !"xor_reduce", metadata !"_ZNK11ap_int_baseILi1ELb0ELb1EE10xor_reduceEv", metadata !42, i32 2297, metadata !202, i1 false, i1 false, i32 0, i32 0, null, i32 256, i1 false, null, null, i32 0, metadata !54, i32 2297} ; [ DW_TAG_subprogram ]
!308 = metadata !{i32 786478, i32 0, metadata !41, metadata !"xnor_reduce", metadata !"xnor_reduce", metadata !"_ZNK11ap_int_baseILi1ELb0ELb1EE11xnor_reduceEv", metadata !42, i32 2300, metadata !202, i1 false, i1 false, i32 0, i32 0, null, i32 256, i1 false, null, null, i32 0, metadata !54, i32 2300} ; [ DW_TAG_subprogram ]
!309 = metadata !{i32 786478, i32 0, metadata !41, metadata !"to_string", metadata !"to_string", metadata !"_ZNK11ap_int_baseILi1ELb0ELb1EE9to_stringEPci8BaseModeb", metadata !42, i32 2307, metadata !310, i1 false, i1 false, i32 0, i32 0, null, i32 256, i1 false, null, null, i32 0, metadata !54, i32 2307} ; [ DW_TAG_subprogram ]
!310 = metadata !{i32 786453, i32 0, metadata !"", i32 0, i32 0, i64 0, i64 0, i64 0, i32 0, null, metadata !311, i32 0, i32 0} ; [ DW_TAG_subroutine_type ]
!311 = metadata !{null, metadata !200, metadata !312, metadata !58, metadata !313, metadata !60}
!312 = metadata !{i32 786447, null, metadata !"", null, i32 0, i64 32, i64 32, i64 0, i32 0, metadata !141} ; [ DW_TAG_pointer_type ]
!313 = metadata !{i32 786436, null, metadata !"BaseMode", metadata !42, i32 603, i64 5, i64 8, i32 0, i32 0, null, metadata !314, i32 0, i32 0} ; [ DW_TAG_enumeration_type ]
!314 = metadata !{metadata !315, metadata !316, metadata !317, metadata !318}
!315 = metadata !{i32 786472, metadata !"SC_BIN", i64 2} ; [ DW_TAG_enumerator ]
!316 = metadata !{i32 786472, metadata !"SC_OCT", i64 8} ; [ DW_TAG_enumerator ]
!317 = metadata !{i32 786472, metadata !"SC_DEC", i64 10} ; [ DW_TAG_enumerator ]
!318 = metadata !{i32 786472, metadata !"SC_HEX", i64 16} ; [ DW_TAG_enumerator ]
!319 = metadata !{i32 786478, i32 0, metadata !41, metadata !"to_string", metadata !"to_string", metadata !"_ZNK11ap_int_baseILi1ELb0ELb1EE9to_stringE8BaseModeb", metadata !42, i32 2334, metadata !320, i1 false, i1 false, i32 0, i32 0, null, i32 256, i1 false, null, null, i32 0, metadata !54, i32 2334} ; [ DW_TAG_subprogram ]
!320 = metadata !{i32 786453, i32 0, metadata !"", i32 0, i32 0, i64 0, i64 0, i64 0, i32 0, null, metadata !321, i32 0, i32 0} ; [ DW_TAG_subroutine_type ]
!321 = metadata !{metadata !312, metadata !200, metadata !313, metadata !60}
!322 = metadata !{i32 786478, i32 0, metadata !41, metadata !"to_string", metadata !"to_string", metadata !"_ZNK11ap_int_baseILi1ELb0ELb1EE9to_stringEab", metadata !42, i32 2338, metadata !323, i1 false, i1 false, i32 0, i32 0, null, i32 256, i1 false, null, null, i32 0, metadata !54, i32 2338} ; [ DW_TAG_subprogram ]
!323 = metadata !{i32 786453, i32 0, metadata !"", i32 0, i32 0, i64 0, i64 0, i64 0, i32 0, null, metadata !324, i32 0, i32 0} ; [ DW_TAG_subroutine_type ]
!324 = metadata !{metadata !312, metadata !200, metadata !85, metadata !60}
!325 = metadata !{metadata !326, metadata !59, metadata !327}
!326 = metadata !{i32 786480, null, metadata !"_AP_W", metadata !58, i64 1, null, i32 0, i32 0} ; [ DW_TAG_template_value_parameter ]
!327 = metadata !{i32 786480, null, metadata !"_AP_C", metadata !60, i64 1, null, i32 0, i32 0} ; [ DW_TAG_template_value_parameter ]
!328 = metadata !{i32 786478, i32 0, metadata !37, metadata !"ap_uint", metadata !"ap_uint", metadata !"", metadata !38, i32 185, metadata !329, i1 false, i1 false, i32 0, i32 0, null, i32 256, i1 false, null, null, i32 0, metadata !54, i32 185} ; [ DW_TAG_subprogram ]
!329 = metadata !{i32 786453, i32 0, metadata !"", i32 0, i32 0, i64 0, i64 0, i64 0, i32 0, null, metadata !330, i32 0, i32 0} ; [ DW_TAG_subroutine_type ]
!330 = metadata !{null, metadata !331}
!331 = metadata !{i32 786447, i32 0, metadata !"", i32 0, i32 0, i64 32, i64 32, i64 0, i32 64, metadata !37} ; [ DW_TAG_pointer_type ]
!332 = metadata !{i32 786478, i32 0, metadata !37, metadata !"ap_uint", metadata !"ap_uint", metadata !"", metadata !38, i32 247, metadata !333, i1 false, i1 false, i32 0, i32 0, null, i32 256, i1 false, null, null, i32 0, metadata !54, i32 247} ; [ DW_TAG_subprogram ]
!333 = metadata !{i32 786453, i32 0, metadata !"", i32 0, i32 0, i64 0, i64 0, i64 0, i32 0, null, metadata !334, i32 0, i32 0} ; [ DW_TAG_subroutine_type ]
!334 = metadata !{null, metadata !331, metadata !60}
!335 = metadata !{i32 786478, i32 0, metadata !37, metadata !"ap_uint", metadata !"ap_uint", metadata !"", metadata !38, i32 248, metadata !336, i1 false, i1 false, i32 0, i32 0, null, i32 256, i1 false, null, null, i32 0, metadata !54, i32 248} ; [ DW_TAG_subprogram ]
!336 = metadata !{i32 786453, i32 0, metadata !"", i32 0, i32 0, i64 0, i64 0, i64 0, i32 0, null, metadata !337, i32 0, i32 0} ; [ DW_TAG_subroutine_type ]
!337 = metadata !{null, metadata !331, metadata !85}
!338 = metadata !{i32 786478, i32 0, metadata !37, metadata !"ap_uint", metadata !"ap_uint", metadata !"", metadata !38, i32 249, metadata !339, i1 false, i1 false, i32 0, i32 0, null, i32 256, i1 false, null, null, i32 0, metadata !54, i32 249} ; [ DW_TAG_subprogram ]
!339 = metadata !{i32 786453, i32 0, metadata !"", i32 0, i32 0, i64 0, i64 0, i64 0, i32 0, null, metadata !340, i32 0, i32 0} ; [ DW_TAG_subroutine_type ]
!340 = metadata !{null, metadata !331, metadata !89}
!341 = metadata !{i32 786478, i32 0, metadata !37, metadata !"ap_uint", metadata !"ap_uint", metadata !"", metadata !38, i32 250, metadata !342, i1 false, i1 false, i32 0, i32 0, null, i32 256, i1 false, null, null, i32 0, metadata !54, i32 250} ; [ DW_TAG_subprogram ]
!342 = metadata !{i32 786453, i32 0, metadata !"", i32 0, i32 0, i64 0, i64 0, i64 0, i32 0, null, metadata !343, i32 0, i32 0} ; [ DW_TAG_subroutine_type ]
!343 = metadata !{null, metadata !331, metadata !93}
!344 = metadata !{i32 786478, i32 0, metadata !37, metadata !"ap_uint", metadata !"ap_uint", metadata !"", metadata !38, i32 251, metadata !345, i1 false, i1 false, i32 0, i32 0, null, i32 256, i1 false, null, null, i32 0, metadata !54, i32 251} ; [ DW_TAG_subprogram ]
!345 = metadata !{i32 786453, i32 0, metadata !"", i32 0, i32 0, i64 0, i64 0, i64 0, i32 0, null, metadata !346, i32 0, i32 0} ; [ DW_TAG_subroutine_type ]
!346 = metadata !{null, metadata !331, metadata !97}
!347 = metadata !{i32 786478, i32 0, metadata !37, metadata !"ap_uint", metadata !"ap_uint", metadata !"", metadata !38, i32 252, metadata !348, i1 false, i1 false, i32 0, i32 0, null, i32 256, i1 false, null, null, i32 0, metadata !54, i32 252} ; [ DW_TAG_subprogram ]
!348 = metadata !{i32 786453, i32 0, metadata !"", i32 0, i32 0, i64 0, i64 0, i64 0, i32 0, null, metadata !349, i32 0, i32 0} ; [ DW_TAG_subroutine_type ]
!349 = metadata !{null, metadata !331, metadata !58}
!350 = metadata !{i32 786478, i32 0, metadata !37, metadata !"ap_uint", metadata !"ap_uint", metadata !"", metadata !38, i32 253, metadata !351, i1 false, i1 false, i32 0, i32 0, null, i32 256, i1 false, null, null, i32 0, metadata !54, i32 253} ; [ DW_TAG_subprogram ]
!351 = metadata !{i32 786453, i32 0, metadata !"", i32 0, i32 0, i64 0, i64 0, i64 0, i32 0, null, metadata !352, i32 0, i32 0} ; [ DW_TAG_subroutine_type ]
!352 = metadata !{null, metadata !331, metadata !104}
!353 = metadata !{i32 786478, i32 0, metadata !37, metadata !"ap_uint", metadata !"ap_uint", metadata !"", metadata !38, i32 254, metadata !354, i1 false, i1 false, i32 0, i32 0, null, i32 256, i1 false, null, null, i32 0, metadata !54, i32 254} ; [ DW_TAG_subprogram ]
!354 = metadata !{i32 786453, i32 0, metadata !"", i32 0, i32 0, i64 0, i64 0, i64 0, i32 0, null, metadata !355, i32 0, i32 0} ; [ DW_TAG_subroutine_type ]
!355 = metadata !{null, metadata !331, metadata !108}
!356 = metadata !{i32 786478, i32 0, metadata !37, metadata !"ap_uint", metadata !"ap_uint", metadata !"", metadata !38, i32 255, metadata !357, i1 false, i1 false, i32 0, i32 0, null, i32 256, i1 false, null, null, i32 0, metadata !54, i32 255} ; [ DW_TAG_subprogram ]
!357 = metadata !{i32 786453, i32 0, metadata !"", i32 0, i32 0, i64 0, i64 0, i64 0, i32 0, null, metadata !358, i32 0, i32 0} ; [ DW_TAG_subroutine_type ]
!358 = metadata !{null, metadata !331, metadata !112}
!359 = metadata !{i32 786478, i32 0, metadata !37, metadata !"ap_uint", metadata !"ap_uint", metadata !"", metadata !38, i32 256, metadata !360, i1 false, i1 false, i32 0, i32 0, null, i32 256, i1 false, null, null, i32 0, metadata !54, i32 256} ; [ DW_TAG_subprogram ]
!360 = metadata !{i32 786453, i32 0, metadata !"", i32 0, i32 0, i64 0, i64 0, i64 0, i32 0, null, metadata !361, i32 0, i32 0} ; [ DW_TAG_subroutine_type ]
!361 = metadata !{null, metadata !331, metadata !122}
!362 = metadata !{i32 786478, i32 0, metadata !37, metadata !"ap_uint", metadata !"ap_uint", metadata !"", metadata !38, i32 257, metadata !363, i1 false, i1 false, i32 0, i32 0, null, i32 256, i1 false, null, null, i32 0, metadata !54, i32 257} ; [ DW_TAG_subprogram ]
!363 = metadata !{i32 786453, i32 0, metadata !"", i32 0, i32 0, i64 0, i64 0, i64 0, i32 0, null, metadata !364, i32 0, i32 0} ; [ DW_TAG_subroutine_type ]
!364 = metadata !{null, metadata !331, metadata !117}
!365 = metadata !{i32 786478, i32 0, metadata !37, metadata !"ap_uint", metadata !"ap_uint", metadata !"", metadata !38, i32 258, metadata !366, i1 false, i1 false, i32 0, i32 0, null, i32 256, i1 false, null, null, i32 0, metadata !54, i32 258} ; [ DW_TAG_subprogram ]
!366 = metadata !{i32 786453, i32 0, metadata !"", i32 0, i32 0, i64 0, i64 0, i64 0, i32 0, null, metadata !367, i32 0, i32 0} ; [ DW_TAG_subroutine_type ]
!367 = metadata !{null, metadata !331, metadata !126}
!368 = metadata !{i32 786478, i32 0, metadata !37, metadata !"ap_uint", metadata !"ap_uint", metadata !"", metadata !38, i32 259, metadata !369, i1 false, i1 false, i32 0, i32 0, null, i32 256, i1 false, null, null, i32 0, metadata !54, i32 259} ; [ DW_TAG_subprogram ]
!369 = metadata !{i32 786453, i32 0, metadata !"", i32 0, i32 0, i64 0, i64 0, i64 0, i32 0, null, metadata !370, i32 0, i32 0} ; [ DW_TAG_subroutine_type ]
!370 = metadata !{null, metadata !331, metadata !131}
!371 = metadata !{i32 786478, i32 0, metadata !37, metadata !"ap_uint", metadata !"ap_uint", metadata !"", metadata !38, i32 260, metadata !372, i1 false, i1 false, i32 0, i32 0, null, i32 256, i1 false, null, null, i32 0, metadata !54, i32 260} ; [ DW_TAG_subprogram ]
!372 = metadata !{i32 786453, i32 0, metadata !"", i32 0, i32 0, i64 0, i64 0, i64 0, i32 0, null, metadata !373, i32 0, i32 0} ; [ DW_TAG_subroutine_type ]
!373 = metadata !{null, metadata !331, metadata !135}
!374 = metadata !{i32 786478, i32 0, metadata !37, metadata !"ap_uint", metadata !"ap_uint", metadata !"", metadata !38, i32 262, metadata !375, i1 false, i1 false, i32 0, i32 0, null, i32 256, i1 false, null, null, i32 0, metadata !54, i32 262} ; [ DW_TAG_subprogram ]
!375 = metadata !{i32 786453, i32 0, metadata !"", i32 0, i32 0, i64 0, i64 0, i64 0, i32 0, null, metadata !376, i32 0, i32 0} ; [ DW_TAG_subroutine_type ]
!376 = metadata !{null, metadata !331, metadata !139}
!377 = metadata !{i32 786478, i32 0, metadata !37, metadata !"ap_uint", metadata !"ap_uint", metadata !"", metadata !38, i32 263, metadata !378, i1 false, i1 false, i32 0, i32 0, null, i32 256, i1 false, null, null, i32 0, metadata !54, i32 263} ; [ DW_TAG_subprogram ]
!378 = metadata !{i32 786453, i32 0, metadata !"", i32 0, i32 0, i64 0, i64 0, i64 0, i32 0, null, metadata !379, i32 0, i32 0} ; [ DW_TAG_subroutine_type ]
!379 = metadata !{null, metadata !331, metadata !139, metadata !85}
!380 = metadata !{i32 786478, i32 0, metadata !37, metadata !"operator=", metadata !"operator=", metadata !"_ZNV7ap_uintILi1EEaSERKS0_", metadata !38, i32 266, metadata !381, i1 false, i1 false, i32 0, i32 0, null, i32 256, i1 false, null, null, i32 0, metadata !54, i32 266} ; [ DW_TAG_subprogram ]
!381 = metadata !{i32 786453, i32 0, metadata !"", i32 0, i32 0, i64 0, i64 0, i64 0, i32 0, null, metadata !382, i32 0, i32 0} ; [ DW_TAG_subroutine_type ]
!382 = metadata !{null, metadata !383, metadata !385}
!383 = metadata !{i32 786447, i32 0, metadata !"", i32 0, i32 0, i64 32, i64 32, i64 0, i32 64, metadata !384} ; [ DW_TAG_pointer_type ]
!384 = metadata !{i32 786485, null, metadata !"", null, i32 0, i64 0, i64 0, i64 0, i32 0, metadata !37} ; [ DW_TAG_volatile_type ]
!385 = metadata !{i32 786448, null, null, null, i32 0, i64 0, i64 0, i64 0, i32 0, metadata !386} ; [ DW_TAG_reference_type ]
!386 = metadata !{i32 786470, null, metadata !"", null, i32 0, i64 0, i64 0, i64 0, i32 0, metadata !37} ; [ DW_TAG_const_type ]
!387 = metadata !{i32 786478, i32 0, metadata !37, metadata !"operator=", metadata !"operator=", metadata !"_ZNV7ap_uintILi1EEaSERVKS0_", metadata !38, i32 270, metadata !388, i1 false, i1 false, i32 0, i32 0, null, i32 256, i1 false, null, null, i32 0, metadata !54, i32 270} ; [ DW_TAG_subprogram ]
!388 = metadata !{i32 786453, i32 0, metadata !"", i32 0, i32 0, i64 0, i64 0, i64 0, i32 0, null, metadata !389, i32 0, i32 0} ; [ DW_TAG_subroutine_type ]
!389 = metadata !{null, metadata !383, metadata !390}
!390 = metadata !{i32 786448, null, null, null, i32 0, i64 0, i64 0, i64 0, i32 0, metadata !391} ; [ DW_TAG_reference_type ]
!391 = metadata !{i32 786470, null, metadata !"", null, i32 0, i64 0, i64 0, i64 0, i32 0, metadata !384} ; [ DW_TAG_const_type ]
!392 = metadata !{i32 786478, i32 0, metadata !37, metadata !"operator=", metadata !"operator=", metadata !"_ZN7ap_uintILi1EEaSERVKS0_", metadata !38, i32 274, metadata !393, i1 false, i1 false, i32 0, i32 0, null, i32 256, i1 false, null, null, i32 0, metadata !54, i32 274} ; [ DW_TAG_subprogram ]
!393 = metadata !{i32 786453, i32 0, metadata !"", i32 0, i32 0, i64 0, i64 0, i64 0, i32 0, null, metadata !394, i32 0, i32 0} ; [ DW_TAG_subroutine_type ]
!394 = metadata !{metadata !36, metadata !331, metadata !390}
!395 = metadata !{i32 786478, i32 0, metadata !37, metadata !"operator=", metadata !"operator=", metadata !"_ZN7ap_uintILi1EEaSERKS0_", metadata !38, i32 279, metadata !396, i1 false, i1 false, i32 0, i32 0, null, i32 256, i1 false, null, null, i32 0, metadata !54, i32 279} ; [ DW_TAG_subprogram ]
!396 = metadata !{i32 786453, i32 0, metadata !"", i32 0, i32 0, i64 0, i64 0, i64 0, i32 0, null, metadata !397, i32 0, i32 0} ; [ DW_TAG_subroutine_type ]
!397 = metadata !{metadata !36, metadata !331, metadata !385}
!398 = metadata !{i32 786478, i32 0, metadata !37, metadata !"~ap_uint", metadata !"~ap_uint", metadata !"", metadata !38, i32 182, metadata !329, i1 false, i1 false, i32 0, i32 0, null, i32 320, i1 false, null, null, i32 0, metadata !54, i32 182} ; [ DW_TAG_subprogram ]
!399 = metadata !{metadata !326}
!400 = metadata !{i32 786447, null, metadata !"", null, i32 0, i64 0, i64 0, i64 0, i32 0, metadata !401} ; [ DW_TAG_pointer_type ]
!401 = metadata !{i32 786438, null, metadata !"ap_uint<1>", metadata !38, i32 182, i64 1, i64 8, i32 0, i32 0, null, metadata !402, i32 0, null, metadata !399} ; [ DW_TAG_class_field_type ]
!402 = metadata !{metadata !403}
!403 = metadata !{i32 786438, null, metadata !"ap_int_base<1, false, true>", metadata !42, i32 1398, i64 1, i64 8, i32 0, i32 0, null, metadata !404, i32 0, null, metadata !325} ; [ DW_TAG_class_field_type ]
!404 = metadata !{metadata !405}
!405 = metadata !{i32 786438, null, metadata !"ssdm_int<1 + 1024 * 0, false>", metadata !46, i32 3, i64 1, i64 8, i32 0, i32 0, null, metadata !406, i32 0, null, metadata !56} ; [ DW_TAG_class_field_type ]
!406 = metadata !{metadata !48}
!407 = metadata !{i32 4, i32 25, metadata !32, null}
!408 = metadata !{i32 1655, i32 70, metadata !409, metadata !411}
!409 = metadata !{i32 786443, metadata !410, i32 1655, i32 68, metadata !42, i32 5} ; [ DW_TAG_lexical_block ]
!410 = metadata !{i32 786478, i32 0, null, metadata !"operator unsigned char", metadata !"operator unsigned char", metadata !"_ZNK11ap_int_baseILi1ELb0ELb1EEcvhEv", metadata !42, i32 1655, metadata !194, i1 false, i1 true, i32 0, i32 0, null, i32 256, i1 false, null, null, metadata !193, metadata !54, i32 1655} ; [ DW_TAG_subprogram ]
!411 = metadata !{i32 6, i32 11, metadata !412, null}
!412 = metadata !{i32 786443, metadata !32, i32 5, i32 1, metadata !33, i32 0} ; [ DW_TAG_lexical_block ]
!413 = metadata !{i32 252, i32 62, metadata !414, metadata !416}
!414 = metadata !{i32 786443, metadata !415, i32 252, i32 60, metadata !38, i32 1} ; [ DW_TAG_lexical_block ]
!415 = metadata !{i32 786478, i32 0, null, metadata !"ap_uint", metadata !"ap_uint", metadata !"_ZN7ap_uintILi1EEC2Ei", metadata !38, i32 252, metadata !348, i1 false, i1 true, i32 0, i32 0, null, i32 256, i1 false, null, null, metadata !347, metadata !54, i32 252} ; [ DW_TAG_subprogram ]
!416 = metadata !{i32 252, i32 77, metadata !417, metadata !411}
!417 = metadata !{i32 786478, i32 0, null, metadata !"ap_uint", metadata !"ap_uint", metadata !"_ZN7ap_uintILi1EEC1Ei", metadata !38, i32 252, metadata !348, i1 false, i1 true, i32 0, i32 0, null, i32 256, i1 false, null, null, metadata !347, metadata !54, i32 252} ; [ DW_TAG_subprogram ]
!418 = metadata !{i32 790531, metadata !419, metadata !"ssdm_int<1 + 1024 * 0, false>.V", null, i32 279, metadata !422, i32 0, i32 0} ; [ DW_TAG_arg_variable_field ]
!419 = metadata !{i32 786689, metadata !420, metadata !"this", metadata !38, i32 16777495, metadata !421, i32 64, i32 0} ; [ DW_TAG_arg_variable ]
!420 = metadata !{i32 786478, i32 0, null, metadata !"operator=", metadata !"operator=", metadata !"_ZN7ap_uintILi1EEaSERKS0_", metadata !38, i32 279, metadata !396, i1 false, i1 true, i32 0, i32 0, null, i32 256, i1 false, null, null, metadata !395, metadata !54, i32 279} ; [ DW_TAG_subprogram ]
!421 = metadata !{i32 786447, null, metadata !"", null, i32 0, i64 32, i64 32, i64 0, i32 0, metadata !37} ; [ DW_TAG_pointer_type ]
!422 = metadata !{i32 786447, null, metadata !"", null, i32 0, i64 32, i64 32, i64 0, i32 0, metadata !401} ; [ DW_TAG_pointer_type ]
!423 = metadata !{i32 279, i32 53, metadata !420, metadata !411}
!424 = metadata !{i32 280, i32 10, metadata !425, metadata !411}
!425 = metadata !{i32 786443, metadata !420, i32 279, i32 92, metadata !38, i32 4} ; [ DW_TAG_lexical_block ]
!426 = metadata !{i32 7, i32 1, metadata !412, null}
